<?xml version="1.0" encoding="UTF-8"?>
<svg width="12px" height="17px" viewBox="0 0 12 17" version="1.1" xmlns="http://www.w3.org/2000/svg" xmlns:xlink="http://www.w3.org/1999/xlink">
    <!-- Generator: Sketch 43.2 (39069) - http://www.bohemiancoding.com/sketch -->
    <title>Arrow &gt;</title>
    <desc>Created with Sketch.</desc>
    <defs>
        <filter x="-0.8%" y="-0.6%" width="185.6%" height="102.2%" filterUnits="objectBoundingBox" id="filter-1">
            <feOffset dx="0" dy="5" in="SourceAlpha" result="shadowOffsetOuter1"></feOffset>
            <feColorMatrix values="0 0 0 0 0   0 0 0 0 0   0 0 0 0 0  0 0 0 0.054149683 0" type="matrix" in="shadowOffsetOuter1" result="shadowMatrixOuter1"></feColorMatrix>
            <feMerge>
                <feMergeNode in="shadowMatrixOuter1"></feMergeNode>
                <feMergeNode in="SourceGraphic"></feMergeNode>
            </feMerge>
        </filter>
    </defs>
    <g id="Page-1" stroke="none" stroke-width="1" fill="none" fill-rule="evenodd" stroke-linecap="round" stroke-linejoin="round">
        <g id="HomePage" transform="translate(-979.000000, -3700.000000)" stroke="#FF0173" stroke-width="2">
            <g id="News-Section" transform="translate(7.000000, 3190.000000)">
                <g id="Single-News" filter="url(#filter-1)" transform="translate(833.666667, 117.000000)">
                    <g id="News-big">
                        <g id="CTA" transform="translate(31.968000, 390.000000)">
                            <g id="Arrow-&gt;" transform="translate(107.000000, 4.000000)">
                                <polyline id="Line-24" transform="translate(7.276519, 4.927856) rotate(-180.000000) translate(-7.276519, -4.927856) " points="9.62907741 0 4.92396007 4.92785553 9.62907741 9.85571107"></polyline>
                                <path d="M9.5743668,4.92785553 L0.820660011,4.92785553" id="Line-23"></path>
                            </g>
                        </g>
                    </g>
                </g>
            </g>
        </g>
    </g>
</svg>