<?xml version="1.0" encoding="UTF-8"?>
<svg width="9px" height="7px" viewBox="0 0 9 7" version="1.1" xmlns="http://www.w3.org/2000/svg" xmlns:xlink="http://www.w3.org/1999/xlink">
    <!-- Generator: Sketch 44 (41411) - http://www.bohemiancoding.com/sketch -->
    <title>Line 24</title>
    <desc>Created with Sketch.</desc>
    <defs></defs>
    <g id="Symbols" stroke="none" stroke-width="1" fill="none" fill-rule="evenodd" stroke-linecap="round" stroke-linejoin="round">
        <g id="Top-Menu-White" transform="translate(-702.000000, -33.000000)" stroke="#303030" stroke-width="1.4">
            <g id="Top-Menu" transform="translate(-0.108382, 0.251476)">
                <g id="Group-3" transform="translate(579.958540, 25.000000)">
                    <g id="Arrow-&gt;" transform="translate(126.108382, 10.748524) rotate(-270.000000) translate(-126.108382, -10.748524) translate(123.108382, 6.748524)">
                        <polyline id="Line-24" transform="translate(3.276519, 3.514688) rotate(-180.000000) translate(-3.276519, -3.514688) " points="5.62907741 -1.24344979e-14 0.923960068 3.51468809 5.62907741 7.02937618"></polyline>
                    </g>
                </g>
            </g>
        </g>
    </g>
</svg>