<?xml version="1.0" encoding="UTF-8"?>
<svg width="21px" height="21px" viewBox="0 0 21 21" version="1.1" xmlns="http://www.w3.org/2000/svg" xmlns:xlink="http://www.w3.org/1999/xlink">
    <!-- Generator: Sketch 43.2 (39069) - http://www.bohemiancoding.com/sketch -->
    <title>Stroke 25</title>
    <desc>Created with Sketch.</desc>
    <defs></defs>
    <g id="Page-1" stroke="none" stroke-width="1" fill="none" fill-rule="evenodd" stroke-linecap="round">
        <g id="Menu---Mobile" transform="translate(-28.000000, -27.000000)" stroke="#FFFFFF" stroke-width="3">
            <g id="Icon-Close" transform="translate(29.000000, 28.000000)">
                <path d="M17.8114941,1.14391176 L1.13564118,17.7236471" id="Stroke-25"></path>
            </g>
        </g>
    </g>
</svg>