<?xml version="1.0" encoding="UTF-8"?>
<svg width="12px" height="12px" viewBox="0 0 12 12" version="1.1" xmlns="http://www.w3.org/2000/svg" xmlns:xlink="http://www.w3.org/1999/xlink">
    <!-- Generator: Sketch 43.2 (39069) - http://www.bohemiancoding.com/sketch -->
    <title>Arrow &gt;</title>
    <desc>Created with Sketch.</desc>
    <defs></defs>
    <g id="Symbols" stroke="none" stroke-width="1" fill="none" fill-rule="evenodd" stroke-linecap="round" stroke-linejoin="round">
        <g id="Call-to-action-News" transform="translate(-99.000000, -3.000000)" stroke="#FF0173" stroke-width="2">
            <g id="CTA" transform="translate(0.968000, 0.000000)">
                <g id="Arrow-&gt;" transform="translate(99.000000, 4.000000)">
                    <polyline id="Line-24" transform="translate(7.276519, 4.927856) rotate(-180.000000) translate(-7.276519, -4.927856) " points="9.62907741 0 4.92396007 4.92785553 9.62907741 9.85571107"></polyline>
                    <path d="M9.5743668,4.92785553 L0.820660011,4.92785553" id="Line-23"></path>
                </g>
            </g>
        </g>
    </g>
</svg>