<?xml version="1.0" encoding="UTF-8"?>
<svg width="10px" height="8px" viewBox="0 0 10 8" version="1.1" xmlns="http://www.w3.org/2000/svg" xmlns:xlink="http://www.w3.org/1999/xlink">
    <!-- Generator: Sketch 44 (41411) - http://www.bohemiancoding.com/sketch -->
    <title>Icon Copy</title>
    <desc>Created with Sketch.</desc>
    <defs></defs>
    <g id="Page-1" stroke="none" stroke-width="1" fill="none" fill-rule="evenodd" stroke-linecap="round" stroke-linejoin="round">
        <g id="News-feed" transform="translate(-436.000000, -462.000000)" stroke="#9B9B9B" stroke-width="2">
            <g id="Group-4" transform="translate(146.000000, 302.000000)">
                <g id="Company-Input-Copy" transform="translate(1.000000, 107.666667)">
                    <g id="Icon-Copy" transform="translate(290.000000, 54.000000)">
                        <path d="M3.96748571,4.87218045 L0.142914286,0.175759398" id="Stroke-216"></path>
                        <path d="M4.1962,4.93948872 L7.9142,0.108451128" id="Stroke-216"></path>
                    </g>
                </g>
            </g>
        </g>
    </g>
</svg>