<?xml version="1.0" encoding="UTF-8"?>
<svg width="28px" height="18px" viewBox="0 0 28 18" version="1.1" xmlns="http://www.w3.org/2000/svg" xmlns:xlink="http://www.w3.org/1999/xlink">
    <!-- Generator: Sketch 44.1 (41455) - http://www.bohemiancoding.com/sketch -->
    <title>Menu</title>
    <desc>Created with Sketch.</desc>
    <defs></defs>
    <g id="Page-1" stroke="none" stroke-width="1" fill="none" fill-rule="evenodd">
        <g id="Our-Businesses-Mobile" transform="translate(-314.000000, -42.000000)" fill="#FF0173">
            <g id="Menu" transform="translate(328.000000, 54.000000) rotate(-180.000000) translate(-328.000000, -54.000000) translate(314.000000, 42.000000)">
                <rect id="Rectangle-2" x="0" y="6.875" width="18" height="2.5999999" rx="1.29999995"></rect>
                <rect id="Rectangle-3" x="0" y="13.75" width="21.0065248" height="2.5999999" rx="1.29999995"></rect>
                <rect id="Rectangle-4" x="0" y="20.625" width="28" height="2.5999999" rx="1.29999995"></rect>
            </g>
        </g>
    </g>
</svg>